…
# Step 4: Perform NicheNet’s ligand activity analysis on the gene set of interest

Now perform the ligand activity analysis: in this analysis, we will calculate the ligand activity of each ligand, or in other words, we will assess how well each CAF-ligand can predict the p-EMT gene set compared to the background of expressed genes (predict whether a gene belongs to the p-EMT program or not).

```{r}
ligand_activities = predict_ligand_activities(geneset = geneset_oi, background_expressed_genes = background_expressed_genes, ligand_target_matrix = ligand_target_matrix, potential_ligands = potential_ligands)
```

Now, we want to rank the ligands based on their ligand activity. In our validation study, we showed that the area under the precision-recall curve (AUPR) between a ligand’s target predictions and the observed transcriptional response was the most informative measure to define ligand activity (this was the Pearson correlation for v1). Therefore, we will rank the ligands based on their AUPR. This allows us to prioritize p-EMT-regulating ligands.

```{r}
ligand_activities %>% arrange(-aupr_corrected) 
## # A tibble: 212 × 5
##    test_ligand auroc   aupr aupr_corrected pearson
##    <chr>       <dbl>  <dbl>          <dbl>   <dbl>
##  1 TGFB2       0.772 0.120          0.105    0.195
##  2 BMP8A       0.774 0.0852         0.0699   0.175
##  3 INHBA       0.777 0.0837         0.0685   0.122
##  4 CXCL12      0.714 0.0829         0.0676   0.141
##  5 LTBP1       0.727 0.0762         0.0609   0.160
##  6 CCN2        0.736 0.0734         0.0581   0.141
##  7 TNXB        0.719 0.0717         0.0564   0.157
##  8 ENG         0.764 0.0703         0.0551   0.145
##  9 BMP5        0.750 0.0691         0.0538   0.148
## 10 VCAN        0.720 0.0687         0.0534   0.140
## # … with 202 more rows
…
